<?xml version="1.0" encoding="UTF-8"?>
<svg xmlns="http://www.w3.org/2000/svg" id="Bold" viewBox="0 0 24 24" width="512" height="512">
<path fill="#ffffff" d="M12,0A12,12,0,1,0,24,12,12.013,12.013,0,0,0,12,0Zm0,21a9,9,0,1,1,9-9A9.011,9.011,0,0,1,12,21Z"/>
<path fill="#ffffff" d="M11.545,9.545h-.3A1.577,1.577,0,0,0,9.64,10.938,1.5,1.5,0,0,0,11,12.532v4.65a1.5,1.5,0,0,0,3,0V12A2.455,2.455,0,0,0,11.545,9.545Z"/>
<path fill="#ffffff" d="M11.83,8.466A1.716,1.716,0,1,0,10.114,6.75,1.715,1.715,0,0,0,11.83,8.466Z"/>
</svg>
